Akshat Dwivedi - How Many Five-Star Ratings Do I Need?
…
Warning: There was 1 warning in `mutate()`.
ℹ In argument: `across(.fns = as.integer)`.
Caused by warning:
! Using `across()` without supplying `.cols` was deprecated in dplyr 1.1.0.
ℹ Please supply `.cols` instead.

# A tibble: 1,024 × 8
      x1    x2    x3    x4    x5 total_ratings sum_ratings mean_rating
   <int> <int> <int> <int> <int>         <int>       <dbl>       <dbl>
 1    20     2     6    42   285           355        1635         4.5
 2    20     2     6    42   286           356        1640         4.5
 3    20     2     6    42   287           357        1645         4.5
 4    20     2     6    42   288           358        1650         4.5
 5    20     2     6    43   285           356        1639         4.5
 6    20     2     6    43   286           357        1644         4.5
 7    20     2     6    43   287           358        1649         4.5
 8    20     2     6    43   288           359        1654         4.6
 9    20     2     6    44   285           357        1643         4.5
10    20     2     6    44   286           358        1648         4.5
# ℹ 1,014 more rows
…
